src/main/chisel/RowDecoder.vcd
$timescale 1ps $end
$scope module RowDecoder $end
$var wire 1 ! clk $end
$var wire 4 " io_bAddr $end
$var wire 6 6 io_rAddr $end
$var wire 9 8 io_gRows_18 $end
$var wire 9 : io_gRows_17 $end
$var wire 9 < io_gRows_16 $end
$var wire 9 > io_gRows_15 $end
$var wire 9 @ io_gRows_14 $end
$var wire 9 B io_gRows_13 $end
$var wire 9 D io_gRows_12 $end
$var wire 9 F io_gRows_11 $end
$var wire 9 H io_gRows_10 $end
$var wire 9 J io_gRows_9 $end
$var wire 9 L io_gRows_8 $end
$var wire 9 N io_gRows_7 $end
$var wire 9 P io_gRows_6 $end
$var wire 9 R io_gRows_5 $end
$var wire 9 T io_gRows_4 $end
$var wire 9 V io_gRows_3 $end
$var wire 9 X io_gRows_2 $end
$var wire 9 Z io_gRows_1 $end
$var wire 9 \ io_gRows_0 $end
$scope module BlockDecoder $end
$var wire 4 5 io_bAddr $end
$var wire 9 [ io_bRow $end
$upscope $end
$scope module BlockDecoder_1 $end
$var wire 4 4 io_bAddr $end
$var wire 9 Y io_bRow $end
$upscope $end
$scope module BlockDecoder_2 $end
$var wire 4 3 io_bAddr $end
$var wire 9 W io_bRow $end
$upscope $end
$scope module BlockDecoder_3 $end
$var wire 4 2 io_bAddr $end
$var wire 9 U io_bRow $end
$upscope $end
$scope module BlockDecoder_4 $end
$var wire 4 1 io_bAddr $end
$var wire 9 S io_bRow $end
$upscope $end
$scope module BlockDecoder_5 $end
$var wire 4 0 io_bAddr $end
$var wire 9 Q io_bRow $end
$upscope $end
$scope module BlockDecoder_6 $end
$var wire 4 / io_bAddr $end
$var wire 9 O io_bRow $end
$upscope $end
$scope module BlockDecoder_7 $end
$var wire 4 . io_bAddr $end
$var wire 9 M io_bRow $end
$upscope $end
$scope module BlockDecoder_8 $end
$var wire 4 - io_bAddr $end
$var wire 9 K io_bRow $end
$upscope $end
$scope module BlockDecoder_9 $end
$var wire 4 , io_bAddr $end
$var wire 9 I io_bRow $end
$upscope $end
$scope module BlockDecoder_10 $end
$var wire 4 + io_bAddr $end
$var wire 9 G io_bRow $end
$upscope $end
$scope module BlockDecoder_11 $end
$var wire 4 * io_bAddr $end
$var wire 9 E io_bRow $end
$upscope $end
$scope module BlockDecoder_12 $end
$var wire 4 ) io_bAddr $end
$var wire 9 C io_bRow $end
$upscope $end
$scope module BlockDecoder_13 $end
$var wire 4 ( io_bAddr $end
$var wire 9 A io_bRow $end
$upscope $end
$scope module BlockDecoder_14 $end
$var wire 4 ' io_bAddr $end
$var wire 9 ? io_bRow $end
$upscope $end
$scope module BlockDecoder_15 $end
$var wire 4 & io_bAddr $end
$var wire 9 = io_bRow $end
$upscope $end
$scope module BlockDecoder_16 $end
$var wire 4 % io_bAddr $end
$var wire 9 ; io_bRow $end
$upscope $end
$scope module BlockDecoder_17 $end
$var wire 4 $ io_bAddr $end
$var wire 9 9 io_bRow $end
$upscope $end
$scope module BlockDecoder_18 $end
$var wire 4 # io_bAddr $end
$var wire 9 7 io_bRow $end
$upscope $end
$upscope $end
$enddefinitions $end
$dumpvars
$end
#0
b0 !
b0001 "
b1010 #
b1010 $
b1010 %
b1010 &
b1010 '
b1010 (
b1010 )
b1010 *
b1010 +
b1010 ,
b1010 -
b1010 .
b1010 /
b1010 0
b1010 1
b1010 2
b1010 3
b1010 4
b1010 5
b110000 6
b000000000 7
b000000000 8
b000000000 9
b000000000 :
b000000000 ;
b000000000 <
b000000000 =
b000000000 >
b000000000 ?
b000000000 @
b000000000 A
b000000000 B
b000000000 C
b000000000 D
b000000000 E
b000000000 F
b000000000 G
b000000000 H
b000000000 I
b000000000 J
b000000000 K
b000000000 L
b000000000 M
b000000000 N
b000000000 O
b000000000 P
b000000000 Q
b000000000 R
b000000000 S
b000000000 T
b000000000 U
b000000000 V
b000000000 W
b000000000 X
b000000000 Y
b000000000 Z
b000000000 [
b000000000 \
#2
b1 !
#3
b0 !
#4
b1 !
#5
b0 !
#6
b1 !
#7
b0 !
#8
b1 !
#9
b0 !
#10
b1 !
b0000 "
b0000 5
b000000 6
b000000001 [
b000000001 \
#11
b0 !
#12
b1 !
b0001 "
b0001 5
b000000010 [
b000000010 \
#13
b0 !
#14
b1 !
b0010 "
b0010 5
b000000100 [
b000000100 \
#15
b0 !
#16
b1 !
b0011 "
b0011 5
b000001000 [
b000001000 \
#17
b0 !
#18
b1 !
b0100 "
b0100 5
b000010000 [
b000010000 \
#19
b0 !
#20
b1 !
b0101 "
b0101 5
b000100000 [
b000100000 \
#21
b0 !
#22
b1 !
b0110 "
b0110 5
b001000000 [
b001000000 \
#23
b0 !
#24
b1 !
b0111 "
b0111 5
b010000000 [
b010000000 \
#25
b0 !
#26
b1 !
b1000 "
b1000 5
b100000000 [
b100000000 \
#27
b0 !
#28
b1 !
b0000 "
b0000 4
b1010 5
b000001 6
b000000001 Y
b000000001 Z
b000000000 [
b000000000 \
#29
b0 !
#30
b1 !
b0001 "
b0001 4
b000000010 Y
b000000010 Z
#31
b0 !
#32
b1 !
b0010 "
b0010 4
b000000100 Y
b000000100 Z
#33
b0 !
#34
b1 !
b0011 "
b0011 4
b000001000 Y
b000001000 Z
#35
b0 !
#36
b1 !
b0100 "
b0100 4
b000010000 Y
b000010000 Z
#37
b0 !
#38
b1 !
b0101 "
b0101 4
b000100000 Y
b000100000 Z
#39
b0 !
#40
b1 !
b0110 "
b0110 4
b001000000 Y
b001000000 Z
#41
b0 !
#42
b1 !
b0111 "
b0111 4
b010000000 Y
b010000000 Z
#43
b0 !
#44
b1 !
b1000 "
b1000 4
b100000000 Y
b100000000 Z
#45
b0 !
#46
b1 !
b0000 "
b0000 3
b1010 4
b000010 6
b000000001 W
b000000001 X
b000000000 Y
b000000000 Z
#47
b0 !
#48
b1 !
b0001 "
b0001 3
b000000010 W
b000000010 X
#49
b0 !
#50
b1 !
b0010 "
b0010 3
b000000100 W
b000000100 X
#51
b0 !
#52
b1 !
b0011 "
b0011 3
b000001000 W
b000001000 X
#53
b0 !
#54
b1 !
b0100 "
b0100 3
b000010000 W
b000010000 X
#55
b0 !
#56
b1 !
b0101 "
b0101 3
b000100000 W
b000100000 X
#57
b0 !
#58
b1 !
b0110 "
b0110 3
b001000000 W
b001000000 X
#59
b0 !
#60
b1 !
b0111 "
b0111 3
b010000000 W
b010000000 X
#61
b0 !
#62
b1 !
b1000 "
b1000 3
b100000000 W
b100000000 X
#63
b0 !
#64
b1 !
b0000 "
b0000 2
b1010 3
b000011 6
b000000001 U
b000000001 V
b000000000 W
b000000000 X
#65
b0 !
#66
b1 !
b0001 "
b0001 2
b000000010 U
b000000010 V
#67
b0 !
#68
b1 !
b0010 "
b0010 2
b000000100 U
b000000100 V
#69
b0 !
#70
b1 !
b0011 "
b0011 2
b000001000 U
b000001000 V
#71
b0 !
#72
b1 !
b0100 "
b0100 2
b000010000 U
b000010000 V
#73
b0 !
#74
b1 !
b0101 "
b0101 2
b000100000 U
b000100000 V
#75
b0 !
#76
b1 !
b0110 "
b0110 2
b001000000 U
b001000000 V
#77
b0 !
#78
b1 !
b0111 "
b0111 2
b010000000 U
b010000000 V
#79
b0 !
#80
b1 !
b1000 "
b1000 2
b100000000 U
b100000000 V
#81
b0 !
#82
b1 !
b0000 "
b0000 1
b1010 2
b000100 6
b000000001 S
b000000001 T
b000000000 U
b000000000 V
#83
b0 !
#84
b1 !
b0001 "
b0001 1
b000000010 S
b000000010 T
#85
b0 !
#86
b1 !
b0010 "
b0010 1
b000000100 S
b000000100 T
#87
b0 !
#88
b1 !
b0011 "
b0011 1
b000001000 S
b000001000 T
#89
b0 !
#90
b1 !
b0100 "
b0100 1
b000010000 S
b000010000 T
#91
b0 !
#92
b1 !
b0101 "
b0101 1
b000100000 S
b000100000 T
#93
b0 !
#94
b1 !
b0110 "
b0110 1
b001000000 S
b001000000 T
#95
b0 !
#96
b1 !
b0111 "
b0111 1
b010000000 S
b010000000 T
#97
b0 !
#98
b1 !
b1000 "
b1000 1
b100000000 S
b100000000 T
#99
b0 !
#100
b1 !
b0000 "
b0000 0
b1010 1
b000101 6
b000000001 Q
b000000001 R
b000000000 S
b000000000 T
#101
b0 !
#102
b1 !
b0001 "
b0001 0
b000000010 Q
b000000010 R
#103
b0 !
#104
b1 !
b0010 "
b0010 0
b000000100 Q
b000000100 R
#105
b0 !
#106
b1 !
b0011 "
b0011 0
b000001000 Q
b000001000 R
#107
b0 !
#108
b1 !
b0100 "
b0100 0
b000010000 Q
b000010000 R
#109
b0 !
#110
b1 !
b0101 "
b0101 0
b000100000 Q
b000100000 R
#111
b0 !
#112
b1 !
b0110 "
b0110 0
b001000000 Q
b001000000 R
#113
b0 !
#114
b1 !
b0111 "
b0111 0
b010000000 Q
b010000000 R
#115
b0 !
#116
b1 !
b1000 "
b1000 0
b100000000 Q
b100000000 R
#117
b0 !
#118
b1 !
b0000 "
b0000 /
b1010 0
b000110 6
b000000001 O
b000000001 P
b000000000 Q
b000000000 R
#119
b0 !
#120
b1 !
b0001 "
b0001 /
b000000010 O
b000000010 P
#121
b0 !
#122
b1 !
b0010 "
b0010 /
b000000100 O
b000000100 P
#123
b0 !
#124
b1 !
b0011 "
b0011 /
b000001000 O
b000001000 P
#125
b0 !
#126
b1 !
b0100 "
b0100 /
b000010000 O
b000010000 P
#127
b0 !
#128
b1 !
b0101 "
b0101 /
b000100000 O
b000100000 P
#129
b0 !
#130
b1 !
b0110 "
b0110 /
b001000000 O
b001000000 P
#131
b0 !
#132
b1 !
b0111 "
b0111 /
b010000000 O
b010000000 P
#133
b0 !
#134
b1 !
b1000 "
b1000 /
b100000000 O
b100000000 P
#135
b0 !
#136
b1 !
b0000 "
b0000 .
b1010 /
b000111 6
b000000001 M
b000000001 N
b000000000 O
b000000000 P
#137
b0 !
#138
b1 !
b0001 "
b0001 .
b000000010 M
b000000010 N
#139
b0 !
#140
b1 !
b0010 "
b0010 .
b000000100 M
b000000100 N
#141
b0 !
#142
b1 !
b0011 "
b0011 .
b000001000 M
b000001000 N
#143
b0 !
#144
b1 !
b0100 "
b0100 .
b000010000 M
b000010000 N
#145
b0 !
#146
b1 !
b0101 "
b0101 .
b000100000 M
b000100000 N
#147
b0 !
#148
b1 !
b0110 "
b0110 .
b001000000 M
b001000000 N
#149
b0 !
#150
b1 !
b0111 "
b0111 .
b010000000 M
b010000000 N
#151
b0 !
#152
b1 !
b1000 "
b1000 .
b100000000 M
b100000000 N
#153
b0 !
#154
b1 !
b0000 "
b0000 -
b1010 .
b001000 6
b000000001 K
b000000001 L
b000000000 M
b000000000 N
#155
b0 !
#156
b1 !
b0001 "
b0001 -
b000000010 K
b000000010 L
#157
b0 !
#158
b1 !
b0010 "
b0010 -
b000000100 K
b000000100 L
#159
b0 !
#160
b1 !
b0011 "
b0011 -
b000001000 K
b000001000 L
#161
b0 !
#162
b1 !
b0100 "
b0100 -
b000010000 K
b000010000 L
#163
b0 !
#164
b1 !
b0101 "
b0101 -
b000100000 K
b000100000 L
#165
b0 !
#166
b1 !
b0110 "
b0110 -
b001000000 K
b001000000 L
#167
b0 !
#168
b1 !
b0111 "
b0111 -
b010000000 K
b010000000 L
#169
b0 !
#170
b1 !
b1000 "
b1000 -
b100000000 K
b100000000 L
#171
b0 !
#172
b1 !
b0000 "
b0000 ,
b1010 -
b001001 6
b000000001 I
b000000001 J
b000000000 K
b000000000 L
#173
b0 !
#174
b1 !
b0001 "
b0001 ,
b000000010 I
b000000010 J
#175
b0 !
#176
b1 !
b0010 "
b0010 ,
b000000100 I
b000000100 J
#177
b0 !
#178
b1 !
b0011 "
b0011 ,
b000001000 I
b000001000 J
#179
b0 !
#180
b1 !
b0100 "
b0100 ,
b000010000 I
b000010000 J
#181
b0 !
#182
b1 !
b0101 "
b0101 ,
b000100000 I
b000100000 J
#183
b0 !
#184
b1 !
b0110 "
b0110 ,
b001000000 I
b001000000 J
#185
b0 !
#186
b1 !
b0111 "
b0111 ,
b010000000 I
b010000000 J
#187
b0 !
#188
b1 !
b1000 "
b1000 ,
b100000000 I
b100000000 J
#189
b0 !
#190
b1 !
b0000 "
b0000 +
b1010 ,
b001010 6
b000000001 G
b000000001 H
b000000000 I
b000000000 J
#191
b0 !
#192
b1 !
b0001 "
b0001 +
b000000010 G
b000000010 H
#193
b0 !
#194
b1 !
b0010 "
b0010 +
b000000100 G
b000000100 H
#195
b0 !
#196
b1 !
b0011 "
b0011 +
b000001000 G
b000001000 H
#197
b0 !
#198
b1 !
b0100 "
b0100 +
b000010000 G
b000010000 H
#199
b0 !
#200
b1 !
b0101 "
b0101 +
b000100000 G
b000100000 H
#201
b0 !
#202
b1 !
b0110 "
b0110 +
b001000000 G
b001000000 H
#203
b0 !
#204
b1 !
b0111 "
b0111 +
b010000000 G
b010000000 H
#205
b0 !
#206
b1 !
b1000 "
b1000 +
b100000000 G
b100000000 H
#207
b0 !
#208
b1 !
b0000 "
b0000 *
b1010 +
b001011 6
b000000001 E
b000000001 F
b000000000 G
b000000000 H
#209
b0 !
#210
b1 !
b0001 "
b0001 *
b000000010 E
b000000010 F
#211
b0 !
#212
b1 !
b0010 "
b0010 *
b000000100 E
b000000100 F
#213
b0 !
#214
b1 !
b0011 "
b0011 *
b000001000 E
b000001000 F
#215
b0 !
#216
b1 !
b0100 "
b0100 *
b000010000 E
b000010000 F
#217
b0 !
#218
b1 !
b0101 "
b0101 *
b000100000 E
b000100000 F
#219
b0 !
#220
b1 !
b0110 "
b0110 *
b001000000 E
b001000000 F
#221
b0 !
#222
b1 !
b0111 "
b0111 *
b010000000 E
b010000000 F
#223
b0 !
#224
b1 !
b1000 "
b1000 *
b100000000 E
b100000000 F
#225
b0 !
#226
b1 !
b0000 "
b0000 )
b1010 *
b001100 6
b000000001 C
b000000001 D
b000000000 E
b000000000 F
#227
b0 !
#228
b1 !
b0001 "
b0001 )
b000000010 C
b000000010 D
#229
b0 !
#230
b1 !
b0010 "
b0010 )
b000000100 C
b000000100 D
#231
b0 !
#232
b1 !
b0011 "
b0011 )
b000001000 C
b000001000 D
#233
b0 !
#234
b1 !
b0100 "
b0100 )
b000010000 C
b000010000 D
#235
b0 !
#236
b1 !
b0101 "
b0101 )
b000100000 C
b000100000 D
#237
b0 !
#238
b1 !
b0110 "
b0110 )
b001000000 C
b001000000 D
#239
b0 !
#240
b1 !
b0111 "
b0111 )
b010000000 C
b010000000 D
#241
b0 !
#242
b1 !
b1000 "
b1000 )
b100000000 C
b100000000 D
#243
b0 !
#244
b1 !
b0000 "
b0000 (
b1010 )
b001101 6
b000000001 A
b000000001 B
b000000000 C
b000000000 D
#245
b0 !
#246
b1 !
b0001 "
b0001 (
b000000010 A
b000000010 B
#247
b0 !
#248
b1 !
b0010 "
b0010 (
b000000100 A
b000000100 B
#249
b0 !
#250
b1 !
b0011 "
b0011 (
b000001000 A
b000001000 B
#251
b0 !
#252
b1 !
b0100 "
b0100 (
b000010000 A
b000010000 B
#253
b0 !
#254
b1 !
b0101 "
b0101 (
b000100000 A
b000100000 B
#255
b0 !
#256
b1 !
b0110 "
b0110 (
b001000000 A
b001000000 B
#257
b0 !
#258
b1 !
b0111 "
b0111 (
b010000000 A
b010000000 B
#259
b0 !
#260
b1 !
b1000 "
b1000 (
b100000000 A
b100000000 B
#261
b0 !
#262
b1 !
b0000 "
b0000 '
b1010 (
b001110 6
b000000001 ?
b000000001 @
b000000000 A
b000000000 B
#263
b0 !
#264
b1 !
b0001 "
b0001 '
b000000010 ?
b000000010 @
#265
b0 !
#266
b1 !
b0010 "
b0010 '
b000000100 ?
b000000100 @
#267
b0 !
#268
b1 !
b0011 "
b0011 '
b000001000 ?
b000001000 @
#269
b0 !
#270
b1 !
b0100 "
b0100 '
b000010000 ?
b000010000 @
#271
b0 !
#272
b1 !
b0101 "
b0101 '
b000100000 ?
b000100000 @
#273
b0 !
#274
b1 !
b0110 "
b0110 '
b001000000 ?
b001000000 @
#275
b0 !
#276
b1 !
b0111 "
b0111 '
b010000000 ?
b010000000 @
#277
b0 !
#278
b1 !
b1000 "
b1000 '
b100000000 ?
b100000000 @
#279
b0 !
#280
b1 !
b0000 "
b0000 &
b1010 '
b001111 6
b000000001 =
b000000001 >
b000000000 ?
b000000000 @
#281
b0 !
#282
b1 !
b0001 "
b0001 &
b000000010 =
b000000010 >
#283
b0 !
#284
b1 !
b0010 "
b0010 &
b000000100 =
b000000100 >
#285
b0 !
#286
b1 !
b0011 "
b0011 &
b000001000 =
b000001000 >
#287
b0 !
#288
b1 !
b0100 "
b0100 &
b000010000 =
b000010000 >
#289
b0 !
#290
b1 !
b0101 "
b0101 &
b000100000 =
b000100000 >
#291
b0 !
#292
b1 !
b0110 "
b0110 &
b001000000 =
b001000000 >
#293
b0 !
#294
b1 !
b0111 "
b0111 &
b010000000 =
b010000000 >
#295
b0 !
#296
b1 !
b1000 "
b1000 &
b100000000 =
b100000000 >
#297
b0 !
#298
b1 !
b0000 "
b0000 %
b1010 &
b010000 6
b000000001 ;
b000000001 <
b000000000 =
b000000000 >
#299
b0 !
#300
b1 !
b0001 "
b0001 %
b000000010 ;
b000000010 <
#301
b0 !
#302
b1 !
b0010 "
b0010 %
b000000100 ;
b000000100 <
#303
b0 !
#304
b1 !
b0011 "
b0011 %
b000001000 ;
b000001000 <
#305
b0 !
#306
b1 !
b0100 "
b0100 %
b000010000 ;
b000010000 <
#307
b0 !
#308
b1 !
b0101 "
b0101 %
b000100000 ;
b000100000 <
#309
b0 !
#310
b1 !
b0110 "
b0110 %
b001000000 ;
b001000000 <
#311
b0 !
#312
b1 !
b0111 "
b0111 %
b010000000 ;
b010000000 <
#313
b0 !
#314
b1 !
b1000 "
b1000 %
b100000000 ;
b100000000 <
#315
b0 !
#316
b1 !
b0000 "
b0000 $
b1010 %
b010001 6
b000000001 9
b000000001 :
b000000000 ;
b000000000 <
#317
b0 !
#318
b1 !
b0001 "
b0001 $
b000000010 9
b000000010 :
#319
b0 !
#320
b1 !
b0010 "
b0010 $
b000000100 9
b000000100 :
#321
b0 !
#322
b1 !
b0011 "
b0011 $
b000001000 9
b000001000 :
#323
b0 !
#324
b1 !
b0100 "
b0100 $
b000010000 9
b000010000 :
#325
b0 !
#326
b1 !
b0101 "
b0101 $
b000100000 9
b000100000 :
#327
b0 !
#328
b1 !
b0110 "
b0110 $
b001000000 9
b001000000 :
#329
b0 !
#330
b1 !
b0111 "
b0111 $
b010000000 9
b010000000 :
#331
b0 !
#332
b1 !
b1000 "
b1000 $
b100000000 9
b100000000 :
#333
b0 !
#334
b1 !
b0000 "
b0000 #
b1010 $
b010010 6
b000000001 7
b000000001 8
b000000000 9
b000000000 :
#335
b0 !
#336
b1 !
b0001 "
b0001 #
b000000010 7
b000000010 8
#337
b0 !
#338
b1 !
b0010 "
b0010 #
b000000100 7
b000000100 8
#339
b0 !
#340
b1 !
b0011 "
b0011 #
b000001000 7
b000001000 8
#341
b0 !
#342
b1 !
b0100 "
b0100 #
b000010000 7
b000010000 8
#343
b0 !
#344
b1 !
b0101 "
b0101 #
b000100000 7
b000100000 8
#345
b0 !
#346
b1 !
b0110 "
b0110 #
b001000000 7
b001000000 8
#347
b0 !
#348
b1 !
b0111 "
b0111 #
b010000000 7
b010000000 8
#349
b0 !
#350
b1 !
b1000 "
b1000 #
b100000000 7
b100000000 8
#351
b0 !
#352
b1 !
#353
b0 !
